<svg id="filter_1_" data-name="filter (1)" xmlns="http://www.w3.org/2000/svg" width="17.648" height="20.218" viewBox="0 0 17.648 20.218">
  <path id="Path_90" data-name="Path 90" d="M93.318,78H91.812L99.1,89.693a.355.355,0,0,1,.053.187V95.5l.954.867V89.88a.355.355,0,0,1,.054-.188l.223-.356Z" transform="translate(-90.827 -77.297)" fill="rgba(255,255,255,0.15)"/>
  <path id="Path_91" data-name="Path 91" d="M113.9,125.351a.351.351,0,0,0,.351.351h12.741a.351.351,0,1,0,0-.7H114.251A.351.351,0,0,0,113.9,125.351Z" transform="translate(-111.806 -121.937)" fill="#fff"/>
  <path id="Path_92" data-name="Path 92" d="M79.939,82.62,81.6,84.126a.351.351,0,0,0,.588-.26V76.684L89.8,64.54a.353.353,0,0,0-.3-.54H72.553a.353.353,0,0,0-.3.539l7.569,12.144V82.36a.351.351,0,0,0,.115.26ZM73.186,64.7H88.863L81.534,76.395a.355.355,0,0,0-.054.188v6.489l-.954-.867V76.583a.355.355,0,0,0-.053-.187Z" transform="translate(-72.202 -64)" fill="#fff"/>
</svg>
